xof 0303txt 0032

Frame Root {
  FrameTransformMatrix {
     1.000000, 0.000000, 0.000000, 0.000000,
     0.000000,-0.000000, 1.000000, 0.000000,
     0.000000, 1.000000, 0.000000, 0.000000,
     0.000000, 0.000000, 0.000000, 1.000000;;
  }
  Frame Cube {
    FrameTransformMatrix {
      -0.000000, 0.564101, 0.000000, 0.000000,
      -0.564101,-0.000000, 0.000000, 0.000000,
       0.000000, 0.000000, 0.564101, 0.000000,
       0.000000, 0.000000, 0.029511, 1.000000;;
    }
    Mesh { // Cube mesh
      208;
      -0.083265; 0.419885;-0.011550;,
      -0.083266;-0.428115;-0.011550;,
      -0.383266;-0.428115;-0.011550;,
      -0.383265; 0.419885;-0.011550;,
      -0.083265; 0.419885; 1.752890;,
      -0.383266; 0.419885; 1.752890;,
      -0.383266;-0.428115; 1.752890;,
      -0.083266;-0.428115; 1.752890;,
       0.500000; 0.419885; 1.520242;,
       0.386603; 0.419885; 1.685576;,
       0.386602;-0.428116; 1.685576;,
       0.500000;-0.428116; 1.520242;,
      -0.083266;-0.428115; 1.520242;,
      -0.083266;-0.428115; 1.752890;,
      -0.383266;-0.428115; 1.752890;,
      -0.383266;-0.428115; 1.520242;,
      -0.383266;-0.428115; 1.520242;,
      -0.383266;-0.428115; 1.752890;,
      -0.383266; 0.419885; 1.752890;,
      -0.383266; 0.419885; 1.520242;,
      -0.083265; 0.419885; 0.566251;,
      -0.083265; 0.419885;-0.011550;,
      -0.383265; 0.419885;-0.011550;,
      -0.383265; 0.419885; 0.566251;,
       0.500000; 0.419885; 0.566251;,
       0.500000; 0.419885;-0.011550;,
       0.200000; 0.419885;-0.011550;,
       0.200000; 0.419885; 0.566251;,
       0.500000;-0.428116; 1.520242;,
       0.386602;-0.428116; 1.685576;,
       0.199999;-0.428115; 1.752890;,
       0.200000;-0.428115; 1.520242;,
       0.386603; 0.419885; 1.685576;,
       0.200000; 0.419885; 1.752890;,
       0.199999;-0.428115; 1.752890;,
       0.386602;-0.428116; 1.685576;,
       0.500000; 0.419885;-0.011550;,
       0.500000;-0.428115;-0.011550;,
       0.200000;-0.428115;-0.011550;,
       0.200000; 0.419885;-0.011550;,
       0.200000; 0.419885; 0.566251;,
       0.200000; 0.419885;-0.011550;,
      -0.083265; 0.419885;-0.011550;,
      -0.083265; 0.419885; 0.566251;,
       0.200000;-0.428115; 1.520242;,
       0.199999;-0.428115; 1.752890;,
      -0.083266;-0.428115; 1.752890;,
      -0.083266;-0.428115; 1.520242;,
       0.200000; 0.419885; 1.752890;,
      -0.083265; 0.419885; 1.752890;,
      -0.083266;-0.428115; 1.752890;,
       0.199999;-0.428115; 1.752890;,
       0.200000; 0.419885;-0.011550;,
       0.200000;-0.428115;-0.011550;,
      -0.083266;-0.428115;-0.011550;,
      -0.083265; 0.419885;-0.011550;,
      -0.083266;-0.428115; 1.520242;,
      -0.083266;-0.428115; 0.566251;,
      -0.083266;-0.808115; 0.566251;,
      -0.083266;-0.808115; 1.520242;,
       0.200000; 0.419885; 1.752890;,
       0.200000; 0.419885; 1.520242;,
      -0.083265; 0.419885; 1.520242;,
      -0.083265; 0.419885; 1.752890;,
       0.500000;-0.428115; 0.566251;,
       0.500000;-0.428116; 1.520242;,
       0.200000;-0.428115; 1.520242;,
       0.200000;-0.428115; 0.566251;,
       0.386603; 0.419885; 1.685576;,
       0.500000; 0.419885; 1.520242;,
       0.200000; 0.419885; 1.520242;,
       0.200000; 0.419885; 1.752890;,
      -0.083265; 0.419885; 1.752890;,
      -0.083265; 0.419885; 1.520242;,
      -0.383266; 0.419885; 1.520242;,
      -0.383266; 0.419885; 1.752890;,
      -0.383266;-0.428115; 0.566251;,
      -0.383266;-0.428115; 1.520242;,
      -0.383266; 0.419885; 1.520242;,
      -0.383265; 0.419885; 0.566251;,
      -0.083266;-0.428115; 0.566251;,
      -0.083266;-0.428115; 1.520242;,
      -0.383266;-0.428115; 1.520242;,
      -0.383266;-0.428115; 0.566251;,
       0.500000; 0.419885; 0.566251;,
       0.500000; 0.419885; 1.520242;,
       0.500000;-0.428116; 1.520242;,
       0.500000;-0.428115; 0.566251;,
       0.500000; 0.419885;-0.011550;,
       0.500000; 0.419885; 0.566251;,
       0.500000;-0.428115; 0.566251;,
       0.500000;-0.428115;-0.011550;,
      -0.083266;-0.428115;-0.011550;,
      -0.083266;-0.428115; 0.566251;,
      -0.383266;-0.428115; 0.566251;,
      -0.383266;-0.428115;-0.011550;,
      -0.383266;-0.428115;-0.011550;,
      -0.383266;-0.428115; 0.566251;,
      -0.383265; 0.419885; 0.566251;,
      -0.383265; 0.419885;-0.011550;,
       0.500000;-0.428115;-0.011550;,
       0.500000;-0.428115; 0.566251;,
       0.200000;-0.428115; 0.566251;,
       0.200000;-0.428115;-0.011550;,
       0.200000;-0.428115;-0.011550;,
       0.200000;-0.428115; 0.566251;,
      -0.083266;-0.428115; 0.566251;,
      -0.083266;-0.428115;-0.011550;,
      -0.083265; 0.419885; 1.520242;,
       0.200000; 0.419885; 1.520242;,
       0.200000; 0.799885; 1.520242;,
      -0.083265; 0.799885; 1.520242;,
       0.500000; 0.419885; 1.520242;,
       0.500000; 0.419885; 0.566251;,
       0.200000; 0.419885; 0.566251;,
       0.200000; 0.419885; 1.520242;,
      -0.083265; 0.419885; 1.520242;,
      -0.083265; 0.419885; 0.566251;,
      -0.383265; 0.419885; 0.566251;,
      -0.383266; 0.419885; 1.520242;,
       0.200000; 0.799885; 1.520242;,
       0.200000; 0.799885; 0.566251;,
      -0.083265; 0.799885; 0.566251;,
      -0.083265; 0.799885; 1.520242;,
       0.200000; 0.419885; 0.566251;,
      -0.083265; 0.419885; 0.566251;,
      -0.083265; 0.799885; 0.566251;,
       0.200000; 0.799885; 0.566251;,
      -0.083265; 0.419885; 0.566251;,
      -0.083265; 0.419885; 1.520242;,
      -0.083265; 0.799885; 1.520242;,
      -0.083265; 0.799885; 0.566251;,
       0.200000; 0.419885; 1.520242;,
       0.200000; 0.419885; 0.566251;,
       0.200000; 0.799885; 0.566251;,
       0.200000; 0.799885; 1.520242;,
       0.200000;-0.808115; 0.566251;,
       0.199999;-0.808115; 1.520242;,
      -0.083266;-0.808115; 1.520242;,
      -0.083266;-0.808115; 0.566251;,
       0.200000;-0.428115; 0.566251;,
       0.200000;-0.428115; 1.520242;,
       0.199999;-0.808115; 1.520242;,
       0.200000;-0.808115; 0.566251;,
       0.200000;-0.428115; 1.520242;,
      -0.083266;-0.428115; 1.520242;,
      -0.083266;-0.808115; 1.520242;,
       0.199999;-0.808115; 1.520242;,
      -0.083266;-0.428115; 0.566251;,
       0.200000;-0.428115; 0.566251;,
       0.200000;-0.808115; 0.566251;,
      -0.083266;-0.808115; 0.566251;,
      -0.291176;-0.274063; 2.287154;,
      -0.291176; 0.265832; 2.287154;,
      -0.291176; 0.265832; 1.747259;,
      -0.291176;-0.274063; 1.747259;,
      -0.291176; 0.265832; 2.287154;,
       0.199680; 0.265832; 2.287154;,
       0.199680; 0.265832; 1.747259;,
      -0.291176; 0.265832; 1.747259;,
       0.199680; 0.265832; 2.287154;,
       0.199680;-0.274063; 2.287154;,
       0.199680;-0.274063; 1.747259;,
       0.199680; 0.265832; 1.747259;,
       0.199680;-0.274063; 2.287154;,
      -0.291176;-0.274063; 2.287154;,
      -0.291176;-0.274063; 1.747259;,
       0.199680;-0.274063; 1.747259;,
      -0.291176;-0.274063; 1.747259;,
      -0.291176; 0.265832; 1.747259;,
       0.199680; 0.265832; 1.747259;,
       0.199680;-0.274063; 1.747259;,
      -0.291176; 0.265832; 2.287154;,
      -0.291176;-0.274063; 2.287154;,
      -0.206419;-0.180838; 2.371212;,
      -0.206419; 0.172608; 2.371212;,
       0.114923;-0.180838; 2.371212;,
       0.114923; 0.172608; 2.371212;,
      -0.206419; 0.172608; 2.371212;,
      -0.206419;-0.180838; 2.371212;,
      -0.291176;-0.274063; 2.287154;,
       0.199680;-0.274063; 2.287154;,
       0.114923;-0.180838; 2.371212;,
      -0.206419;-0.180838; 2.371212;,
       0.199680; 0.265832; 2.287154;,
      -0.291176; 0.265832; 2.287154;,
      -0.206419; 0.172608; 2.371212;,
       0.114923; 0.172608; 2.371212;,
       0.199680;-0.274063; 2.287154;,
       0.199680; 0.265832; 2.287154;,
       0.114923; 0.172608; 2.371212;,
       0.114923;-0.180838; 2.371212;,
      -0.291176;-0.274063; 2.287154;,
      -0.291176; 0.265832; 2.287154;,
      -0.342097; 0.321842; 2.287154;,
      -0.342097;-0.330072; 2.287154;,
       0.199680;-0.274063; 2.287154;,
      -0.291176;-0.274063; 2.287154;,
      -0.342097;-0.330072; 2.287154;,
       0.250602;-0.330072; 2.287154;,
      -0.291176; 0.265832; 2.287154;,
       0.199680; 0.265832; 2.287154;,
       0.250602; 0.321842; 2.287154;,
      -0.342097; 0.321842; 2.287154;,
       0.199680; 0.265832; 2.287154;,
       0.199680;-0.274063; 2.287154;,
       0.250602;-0.330072; 2.287154;,
       0.250602; 0.321842; 2.287154;;
      52;
      4;3,2,1,0;,
      4;7,6,5,4;,
      4;11,10,9,8;,
      4;15,14,13,12;,
      4;19,18,17,16;,
      4;23,22,21,20;,
      4;27,26,25,24;,
      4;31,30,29,28;,
      4;35,34,33,32;,
      4;39,38,37,36;,
      4;43,42,41,40;,
      4;47,46,45,44;,
      4;51,50,49,48;,
      4;55,54,53,52;,
      4;59,58,57,56;,
      4;63,62,61,60;,
      4;67,66,65,64;,
      4;71,70,69,68;,
      4;75,74,73,72;,
      4;79,78,77,76;,
      4;83,82,81,80;,
      4;87,86,85,84;,
      4;91,90,89,88;,
      4;95,94,93,92;,
      4;99,98,97,96;,
      4;103,102,101,100;,
      4;107,106,105,104;,
      4;111,110,109,108;,
      4;115,114,113,112;,
      4;119,118,117,116;,
      4;123,122,121,120;,
      4;127,126,125,124;,
      4;131,130,129,128;,
      4;135,134,133,132;,
      4;139,138,137,136;,
      4;143,142,141,140;,
      4;147,146,145,144;,
      4;151,150,149,148;,
      4;155,154,153,152;,
      4;159,158,157,156;,
      4;163,162,161,160;,
      4;167,166,165,164;,
      4;171,170,169,168;,
      4;175,174,173,172;,
      4;179,178,177,176;,
      4;183,182,181,180;,
      4;187,186,185,184;,
      4;191,190,189,188;,
      4;195,194,193,192;,
      4;199,198,197,196;,
      4;203,202,201,200;,
      4;207,206,205,204;;
      MeshNormals { // Cube normals
        52;
         0.000000; 0.000000;-1.000000;,
         0.000000;-0.000000; 1.000000;,
         0.824669;-0.000001; 0.565615;,
        -0.000001;-1.000000; 0.000000;,
        -1.000000; 0.000000;-0.000000;,
         0.000000; 1.000000; 0.000000;,
         0.000000; 1.000000; 0.000000;,
        -0.000001;-1.000000;-0.000001;,
         0.339330;-0.000000; 0.940667;,
         0.000000; 0.000000;-1.000000;,
         0.000001; 1.000000; 0.000000;,
        -0.000001;-1.000000;-0.000000;,
         0.000000;-0.000000; 1.000000;,
         0.000000; 0.000000;-1.000000;,
        -1.000000; 0.000001;-0.000000;,
         0.000001; 1.000000; 0.000000;,
        -0.000001;-1.000000;-0.000000;,
         0.000001; 1.000000; 0.000001;,
         0.000001; 1.000000; 0.000000;,
        -1.000000; 0.000001;-0.000000;,
        -0.000001;-1.000000;-0.000000;,
         1.000000;-0.000001; 0.000000;,
         1.000000;-0.000000; 0.000000;,
        -0.000000;-1.000000; 0.000000;,
        -1.000000; 0.000001;-0.000000;,
        -0.000000;-1.000000;-0.000000;,
        -0.000001;-1.000000;-0.000000;,
        -0.000000;-0.000000; 1.000000;,
         0.000000; 1.000000; 0.000000;,
         0.000000; 1.000000; 0.000000;,
         0.000001; 1.000000; 0.000000;,
         0.000000; 0.000000;-1.000000;,
        -1.000000; 0.000000;-0.000000;,
         1.000000;-0.000000;-0.000000;,
        -0.000001;-1.000000;-0.000000;,
         1.000000;-0.000001; 0.000000;,
         0.000000;-0.000000; 1.000000;,
         0.000000; 0.000000;-1.000000;,
        -1.000000; 0.000000; 0.000000;,
         0.000000; 1.000000;-0.000000;,
         1.000000; 0.000000;-0.000000;,
         0.000000;-1.000000; 0.000000;,
        -0.000000; 0.000000;-1.000000;,
        -0.704175; 0.000000; 0.710026;,
        -0.000000; 0.000000; 1.000000;,
         0.000000;-0.669652; 0.742675;,
         0.000000; 0.669652; 0.742675;,
         0.704175; 0.000000; 0.710026;,
        -0.000000; 0.000000; 1.000000;,
         0.000000;-0.000000; 1.000000;,
         0.000000; 0.000000; 1.000000;,
         0.000000; 0.000000; 1.000000;;
        52;
        4;0,0,0,0;,
        4;1,1,1,1;,
        4;2,2,2,2;,
        4;3,3,3,3;,
        4;4,4,4,4;,
        4;5,5,5,5;,
        4;6,6,6,6;,
        4;7,7,7,7;,
        4;8,8,8,8;,
        4;9,9,9,9;,
        4;10,10,10,10;,
        4;11,11,11,11;,
        4;12,12,12,12;,
        4;13,13,13,13;,
        4;14,14,14,14;,
        4;15,15,15,15;,
        4;16,16,16,16;,
        4;17,17,17,17;,
        4;18,18,18,18;,
        4;19,19,19,19;,
        4;20,20,20,20;,
        4;21,21,21,21;,
        4;22,22,22,22;,
        4;23,23,23,23;,
        4;24,24,24,24;,
        4;25,25,25,25;,
        4;26,26,26,26;,
        4;27,27,27,27;,
        4;28,28,28,28;,
        4;29,29,29,29;,
        4;30,30,30,30;,
        4;31,31,31,31;,
        4;32,32,32,32;,
        4;33,33,33,33;,
        4;34,34,34,34;,
        4;35,35,35,35;,
        4;36,36,36,36;,
        4;37,37,37,37;,
        4;38,38,38,38;,
        4;39,39,39,39;,
        4;40,40,40,40;,
        4;41,41,41,41;,
        4;42,42,42,42;,
        4;43,43,43,43;,
        4;44,44,44,44;,
        4;45,45,45,45;,
        4;46,46,46,46;,
        4;47,47,47,47;,
        4;48,48,48,48;,
        4;49,49,49,49;,
        4;50,50,50,50;,
        4;51,51,51,51;;
      } // End of Cube normals
      MeshTextureCoords { // Cube UV coordinates
        208;
         0.510492;-0.128145;,
         0.257719;-0.128145;,
         0.257719;-0.014426;,
         0.510492;-0.014426;,
         0.651597;-0.014426;,
         0.740811;-0.014426;,
         0.740811;-0.335874;,
         0.651597;-0.335874;,
         0.257719;-0.595076;,
         0.257719;-0.657749;,
         0.004947;-0.657749;,
         0.004947;-0.595076;,
         0.178807; 0.566225;,
         0.178807; 0.654414;,
         0.268231; 0.654414;,
         0.268231; 0.566225;,
         0.531516; 0.566225;,
         0.531516; 0.654414;,
         0.784289; 0.654414;,
         0.784289; 0.566225;,
         0.357656; 0.204599;,
         0.357656;-0.014425;,
         0.268232;-0.014425;,
         0.268232; 0.204599;,
         0.531516; 0.204599;,
         0.531516;-0.014425;,
         0.442092;-0.014425;,
         0.442092; 0.204599;,
         0.004947; 0.566225;,
         0.038748; 0.628897;,
         0.094371; 0.654414;,
         0.094371; 0.566225;,
         0.510492;-0.014426;,
         0.567359;-0.014426;,
         0.567359;-0.335874;,
         0.510492;-0.335874;,
         0.510492;-0.349242;,
         0.257719;-0.349242;,
         0.257719;-0.235522;,
         0.510492;-0.235522;,
         0.442092; 0.204599;,
         0.442092;-0.014425;,
         0.357656;-0.014425;,
         0.357656; 0.204599;,
         0.094371; 0.566225;,
         0.094371; 0.654414;,
         0.178807; 0.654414;,
         0.178807; 0.566225;,
         0.567359;-0.014426;,
         0.651597;-0.014426;,
         0.651597;-0.335874;,
         0.567359;-0.335874;,
         0.510492;-0.235522;,
         0.257719;-0.235522;,
         0.257719;-0.128145;,
         0.510492;-0.128145;,
         0.827139; 0.000332;,
         0.827214; 0.833011;,
         0.999207; 0.832953;,
         0.999132; 0.000274;,
         0.442092; 0.654414;,
         0.442092; 0.566225;,
         0.357656; 0.566225;,
         0.357656; 0.654414;,
         0.004947; 0.204599;,
         0.004947; 0.566225;,
         0.094371; 0.566225;,
         0.094371; 0.204599;,
         0.497715; 0.628898;,
         0.531516; 0.566225;,
         0.442092; 0.566225;,
         0.442092; 0.654414;,
         0.357656; 0.654414;,
         0.357656; 0.566225;,
         0.268231; 0.566225;,
         0.268231; 0.654414;,
         0.531516; 0.204599;,
         0.531516; 0.566225;,
         0.784289; 0.566225;,
         0.784289; 0.204599;,
         0.178807; 0.204599;,
         0.178807; 0.566225;,
         0.268231; 0.566225;,
         0.268231; 0.204599;,
         0.257719;-0.233450;,
         0.257719;-0.595076;,
         0.004947;-0.595076;,
         0.004947;-0.233450;,
         0.257719;-0.014426;,
         0.257719;-0.233450;,
         0.004947;-0.233450;,
         0.004947;-0.014426;,
         0.178807;-0.014425;,
         0.178807; 0.204599;,
         0.268231; 0.204599;,
         0.268231;-0.014425;,
         0.531516;-0.014425;,
         0.531516; 0.204599;,
         0.784289; 0.204599;,
         0.784289;-0.014425;,
         0.004947;-0.014426;,
         0.004947; 0.204599;,
         0.094371; 0.204599;,
         0.094371;-0.014426;,
         0.094371;-0.014426;,
         0.094371; 0.204599;,
         0.178807; 0.204599;,
         0.178807;-0.014425;,
         0.740811;-0.014426;,
         0.825049;-0.014426;,
         0.825049;-0.158471;,
         0.740811;-0.158471;,
         0.531516; 0.566225;,
         0.531516; 0.204599;,
         0.442092; 0.204599;,
         0.442092; 0.566225;,
         0.357656; 0.566225;,
         0.357656; 0.204599;,
         0.268232; 0.204599;,
         0.268231; 0.566225;,
         0.827109; 0.000004;,
         0.827076; 0.833303;,
         0.999183; 0.833329;,
         0.999216; 0.000030;,
         0.862466; 0.848835;,
         0.834448; 0.848835;,
         0.834448; 0.904873;,
         0.862466; 0.904873;,
         0.999310; 0.832922;,
         0.999310; 0.000362;,
         0.826912; 0.000362;,
         0.826912; 0.832922;,
         0.827304;-0.000487;,
         0.826874; 0.832593;,
         0.999105; 0.832924;,
         0.999534;-0.000156;,
         0.999150; 0.833325;,
         0.999150; 0.000555;,
         0.827309; 0.000555;,
         0.827309; 0.833325;,
         0.999288; 0.833132;,
         0.999124; 0.000075;,
         0.827052; 0.000205;,
         0.827216; 0.833262;,
         0.825049;-0.302516;,
         0.740811;-0.302516;,
         0.740811;-0.158471;,
         0.825049;-0.158471;,
         0.833742; 0.906312;,
         0.863115; 0.906312;,
         0.863115; 0.847566;,
         0.833742; 0.847566;,
         0.833969; 0.862500;,
         0.833969; 0.875646;,
         0.843298; 0.875646;,
         0.843298; 0.862500;,
         0.851779; 0.862500;,
         0.860261; 0.862500;,
         0.860261; 0.849354;,
         0.851779; 0.849354;,
         0.843298; 0.849354;,
         0.833969; 0.849354;,
         0.833969; 0.862500;,
         0.843298; 0.862500;,
         0.851779; 0.875646;,
         0.860261; 0.875646;,
         0.860261; 0.862500;,
         0.851779; 0.862500;,
         1.305137; 0.100747;,
         1.305137; 0.476571;,
         1.704808; 0.476571;,
         1.704808; 0.100747;,
         0.904583; 0.858513;,
         0.904582; 0.985225;,
         0.915890; 0.963345;,
         0.915890; 0.880392;,
         0.958759; 0.963345;,
         0.958759; 0.880392;,
         0.915890; 0.880392;,
         0.915890; 0.963345;,
         0.904582; 0.985225;,
         0.970067; 0.985225;,
         0.958759; 0.963345;,
         0.915890; 0.963345;,
         0.970067; 0.858513;,
         0.904583; 0.858513;,
         0.915890; 0.880392;,
         0.958759; 0.880392;,
         0.970067; 0.985225;,
         0.970067; 0.858513;,
         0.958759; 0.880392;,
         0.958759; 0.963345;,
         0.904582; 0.985225;,
         0.904583; 0.858513;,
         0.897789; 0.845367;,
         0.897789; 0.998370;,
         0.970067; 0.985225;,
         0.904582; 0.985225;,
         0.897789; 0.998370;,
         0.976860; 0.998370;,
         0.904583; 0.858513;,
         0.970067; 0.858513;,
         0.976860; 0.845367;,
         0.897789; 0.845367;,
         0.970067; 0.858513;,
         0.970067; 0.985225;,
         0.976860; 0.998370;,
         0.976860; 0.845367;;
      } // End of Cube UV coordinates
      MeshMaterialList { // Cube material list
        1;
        52;
        0,
        0,
        0,
        0,
        0,
        0,
        0,
        0,
        0,
        0,
        0,
        0,
        0,
        0,
        0,
        0,
        0,
        0,
        0,
        0,
        0,
        0,
        0,
        0,
        0,
        0,
        0,
        0,
        0,
        0,
        0,
        0,
        0,
        0,
        0,
        0,
        0,
        0,
        0,
        0,
        0,
        0,
        0,
        0,
        0,
        0,
        0,
        0,
        0,
        0,
        0,
        0;
        Material Material_001 {
           0.640000; 0.640000; 0.640000; 1.000000;;
           96.078431;
           0.500000; 0.500000; 0.500000;;
           0.000000; 0.000000; 0.000000;;
          TextureFilename {"ArmManTexture.png";}
        }
      } // End of Cube material list
    } // End of Cube mesh
  } // End of Cube
} // End of Root
