xof 0303txt 0032

Frame Root {
  FrameTransformMatrix {
     1.000000, 0.000000, 0.000000, 0.000000,
     0.000000,-0.000000, 1.000000, 0.000000,
     0.000000, 1.000000, 0.000000, 0.000000,
     0.000000, 0.000000, 0.000000, 1.000000;;
  }
  Frame Plane {
    FrameTransformMatrix {
       1.000000, 0.000000, 0.000000, 0.000000,
       0.000000, 1.000000, 0.000000, 0.000000,
       0.000000, 0.000000, 1.000000, 0.000000,
       0.000000, 0.000000, 0.000000, 1.000000;;
    }
    Mesh { // Plane mesh
      128;
       0.900000; 0.900000; 0.000000;,
       0.900000; 1.000000; 0.000000;,
       1.000000; 1.000000; 0.000000;,
       1.000000; 0.900000; 0.000000;,
      -1.000000; 0.900000; 0.000000;,
      -1.000000; 1.000000; 0.000000;,
      -0.900000; 1.000000; 0.000000;,
      -0.900000; 0.900000; 0.000000;,
      -0.900000; 1.000000; 0.086206;,
      -0.900000; 0.900000; 0.086206;,
       0.900000; 0.900000; 0.086206;,
       0.900000; 1.000000; 0.086206;,
       0.900000; 0.900000; 0.086206;,
       1.000000; 0.900000; 0.086206;,
       1.000000; 1.000000; 0.086206;,
       0.900000; 1.000000; 0.086206;,
      -1.000000;-0.900000; 0.000000;,
      -1.000000; 0.900000; 0.000000;,
      -0.900000; 0.900000; 0.000000;,
      -0.900000;-0.900000; 0.000000;,
       0.900000;-0.900000; 0.000000;,
       0.900000; 0.900000; 0.000000;,
       1.000000; 0.900000; 0.000000;,
       1.000000;-0.900000; 0.000000;,
       0.900000;-1.000000; 0.000000;,
       0.900000;-0.900000; 0.000000;,
       1.000000;-0.900000; 0.000000;,
       1.000000;-1.000000; 0.000000;,
      -1.000000;-1.000000; 0.000000;,
      -1.000000;-0.900000; 0.000000;,
      -0.900000;-0.900000; 0.000000;,
      -0.900000;-1.000000; 0.000000;,
      -0.900000;-1.000000; 0.000000;,
      -0.900000;-0.900000; 0.000000;,
       0.900000;-0.900000; 0.000000;,
       0.900000;-1.000000; 0.000000;,
      -1.000000; 0.900000; 0.086206;,
      -0.900000; 0.900000; 0.086206;,
      -0.900000; 1.000000; 0.086206;,
      -1.000000; 1.000000; 0.086206;,
      -1.000000;-0.900000; 0.086206;,
      -0.900000;-0.900000; 0.086206;,
      -0.900000; 0.900000; 0.086206;,
      -1.000000; 0.900000; 0.086206;,
       0.900000;-0.900000; 0.086206;,
       1.000000;-0.900000; 0.086206;,
       1.000000; 0.900000; 0.086206;,
       0.900000; 0.900000; 0.086206;,
       0.900000;-1.000000; 0.086206;,
       1.000000;-1.000000; 0.086206;,
       1.000000;-0.900000; 0.086206;,
       0.900000;-0.900000; 0.086206;,
      -1.000000;-1.000000; 0.086206;,
      -0.900000;-1.000000; 0.086206;,
      -0.900000;-0.900000; 0.086206;,
      -1.000000;-0.900000; 0.086206;,
      -0.900000;-1.000000; 0.086206;,
       0.900000;-1.000000; 0.086206;,
       0.900000;-0.900000; 0.086206;,
      -0.900000;-0.900000; 0.086206;,
       1.000000; 0.900000; 0.000000;,
       1.000000; 1.000000; 0.000000;,
       1.000000; 1.000000; 0.086206;,
       1.000000; 0.900000; 0.086206;,
      -1.000000; 0.900000; 0.000000;,
      -1.000000;-0.900000; 0.000000;,
      -1.000000;-0.900000; 0.086206;,
      -1.000000; 0.900000; 0.086206;,
      -1.000000; 1.000000; 0.000000;,
      -1.000000; 0.900000; 0.000000;,
      -1.000000; 0.900000; 0.086206;,
      -1.000000; 1.000000; 0.086206;,
      -0.900000; 1.000000; 0.000000;,
      -1.000000; 1.000000; 0.000000;,
      -1.000000; 1.000000; 0.086206;,
      -0.900000; 1.000000; 0.086206;,
       1.000000;-1.000000; 0.000000;,
       1.000000;-0.900000; 0.000000;,
       1.000000;-0.900000; 0.086206;,
       1.000000;-1.000000; 0.086206;,
       1.000000;-0.900000; 0.000000;,
       1.000000; 0.900000; 0.000000;,
       1.000000; 0.900000; 0.086206;,
       1.000000;-0.900000; 0.086206;,
      -1.000000;-1.000000; 0.000000;,
      -0.900000;-1.000000; 0.000000;,
      -0.900000;-1.000000; 0.086206;,
      -1.000000;-1.000000; 0.086206;,
      -0.900000;-0.900000; 0.000000;,
      -0.900000; 0.900000; 0.000000;,
      -0.900000; 0.900000; 0.086206;,
      -0.900000;-0.900000; 0.086206;,
       0.900000; 0.900000; 0.000000;,
       0.900000;-0.900000; 0.000000;,
       0.900000;-0.900000; 0.086206;,
       0.900000; 0.900000; 0.086206;,
      -0.900000;-1.000000; 0.000000;,
       0.900000;-1.000000; 0.000000;,
       0.900000;-1.000000; 0.086206;,
      -0.900000;-1.000000; 0.086206;,
      -1.000000;-0.900000; 0.000000;,
      -1.000000;-1.000000; 0.000000;,
      -1.000000;-1.000000; 0.086206;,
      -1.000000;-0.900000; 0.086206;,
       1.000000; 1.000000; 0.000000;,
       0.900000; 1.000000; 0.000000;,
       0.900000; 1.000000; 0.086206;,
       1.000000; 1.000000; 0.086206;,
       0.900000;-0.900000; 0.000000;,
      -0.900000;-0.900000; 0.000000;,
      -0.900000;-0.900000; 0.086206;,
       0.900000;-0.900000; 0.086206;,
       0.900000;-1.000000; 0.000000;,
       1.000000;-1.000000; 0.000000;,
       1.000000;-1.000000; 0.086206;,
       0.900000;-1.000000; 0.086206;,
      -0.900000; 1.000000; 0.000000;,
      -0.900000; 1.000000; 0.086206;,
       0.900000; 1.000000; 0.086206;,
       0.900000; 1.000000; 0.000000;,
      -0.900000; 0.900000; 0.000000;,
       0.900000; 0.900000; 0.000000;,
       0.900000; 0.900000; 0.086206;,
      -0.900000; 0.900000; 0.086206;,
      -0.900000; 1.000000; 0.000000;,
       0.900000; 1.000000; 0.000000;,
       0.900000; 0.900000; 0.000000;,
      -0.900000; 0.900000; 0.000000;;
      32;
      4;3,2,1,0;,
      4;7,6,5,4;,
      4;11,10,9,8;,
      4;15,14,13,12;,
      4;19,18,17,16;,
      4;23,22,21,20;,
      4;27,26,25,24;,
      4;31,30,29,28;,
      4;35,34,33,32;,
      4;39,38,37,36;,
      4;43,42,41,40;,
      4;47,46,45,44;,
      4;51,50,49,48;,
      4;55,54,53,52;,
      4;59,58,57,56;,
      4;63,62,61,60;,
      4;67,66,65,64;,
      4;71,70,69,68;,
      4;75,74,73,72;,
      4;79,78,77,76;,
      4;83,82,81,80;,
      4;87,86,85,84;,
      4;91,90,89,88;,
      4;95,94,93,92;,
      4;99,98,97,96;,
      4;103,102,101,100;,
      4;107,106,105,104;,
      4;111,110,109,108;,
      4;115,114,113,112;,
      4;119,118,117,116;,
      4;123,122,121,120;,
      4;127,126,125,124;;
      MeshNormals { // Plane normals
        32;
        -0.000000; 0.000000;-1.000000;,
        -0.000000; 0.000000;-1.000000;,
         0.000000; 0.000000; 1.000000;,
         0.000000; 0.000000; 1.000000;,
        -0.000000; 0.000000;-1.000000;,
        -0.000000; 0.000000;-1.000000;,
        -0.000000; 0.000000;-1.000000;,
        -0.000000; 0.000000;-1.000000;,
        -0.000000; 0.000000;-1.000000;,
         0.000000; 0.000000; 1.000000;,
         0.000000; 0.000000; 1.000000;,
         0.000000; 0.000000; 1.000000;,
         0.000000; 0.000000; 1.000000;,
         0.000000; 0.000000; 1.000000;,
         0.000000; 0.000000; 1.000000;,
         1.000000; 0.000000; 0.000000;,
        -1.000000; 0.000000;-0.000000;,
        -1.000000; 0.000000;-0.000000;,
         0.000000; 1.000000; 0.000000;,
         1.000000; 0.000000; 0.000000;,
         1.000000; 0.000000; 0.000000;,
         0.000000;-1.000000;-0.000000;,
         1.000000; 0.000000; 0.000000;,
        -1.000000; 0.000000;-0.000000;,
         0.000000;-1.000000;-0.000000;,
        -1.000000; 0.000000;-0.000000;,
         0.000000; 1.000000; 0.000000;,
         0.000000; 1.000000; 0.000000;,
         0.000000;-1.000000;-0.000000;,
         0.000000; 1.000000; 0.000000;,
         0.000000;-1.000000;-0.000000;,
         0.000000; 0.000000;-1.000000;;
        32;
        4;0,0,0,0;,
        4;1,1,1,1;,
        4;2,2,2,2;,
        4;3,3,3,3;,
        4;4,4,4,4;,
        4;5,5,5,5;,
        4;6,6,6,6;,
        4;7,7,7,7;,
        4;8,8,8,8;,
        4;9,9,9,9;,
        4;10,10,10,10;,
        4;11,11,11,11;,
        4;12,12,12,12;,
        4;13,13,13,13;,
        4;14,14,14,14;,
        4;15,15,15,15;,
        4;16,16,16,16;,
        4;17,17,17,17;,
        4;18,18,18,18;,
        4;19,19,19,19;,
        4;20,20,20,20;,
        4;21,21,21,21;,
        4;22,22,22,22;,
        4;23,23,23,23;,
        4;24,24,24,24;,
        4;25,25,25,25;,
        4;26,26,26,26;,
        4;27,27,27,27;,
        4;28,28,28,28;,
        4;29,29,29,29;,
        4;30,30,30,30;,
        4;31,31,31,31;;
      } // End of Plane normals
      MeshTextureCoords { // Plane UV coordinates
        128;
         0.037180; 0.975000;,
         0.000000; 0.975000;,
         0.000000; 1.000000;,
         0.037180; 1.000000;,
         0.037180; 0.500000;,
         0.000000; 0.500000;,
         0.000000; 0.525000;,
         0.037180; 0.525000;,
         0.743592; 0.025000;,
         0.706412; 0.025000;,
         0.706412; 0.475000;,
         0.743592; 0.475000;,
         0.706412; 0.475000;,
         0.706412; 0.500000;,
         0.743592; 0.500000;,
         0.743592; 0.475000;,
         0.706412; 0.500000;,
         0.037180; 0.500000;,
         0.037180; 0.525000;,
         0.706412; 0.525000;,
         0.706412; 0.975000;,
         0.037180; 0.975000;,
         0.037180; 1.000000;,
         0.706412; 1.000000;,
         0.743592; 0.975000;,
         0.706412; 0.975000;,
         0.706412; 1.000000;,
         0.743592; 1.000000;,
         0.743592; 0.500000;,
         0.706412; 0.500000;,
         0.706412; 0.525000;,
         0.743592; 0.525000;,
         0.743592; 0.525000;,
         0.706412; 0.525000;,
         0.706412; 0.975000;,
         0.743592; 0.975000;,
         0.706412; 0.000000;,
         0.706412; 0.025000;,
         0.743592; 0.025000;,
         0.743592; 0.000000;,
         0.037180; 0.000000;,
         0.037180; 0.025000;,
         0.706412; 0.025000;,
         0.706412; 0.000000;,
         0.037180; 0.475000;,
         0.037180; 0.500000;,
         0.706412; 0.500000;,
         0.706412; 0.475000;,
         0.000000; 0.475000;,
         0.000000; 0.500000;,
         0.037180; 0.500000;,
         0.037180; 0.475000;,
         0.000000; 0.000000;,
         0.000000; 0.025000;,
         0.037180; 0.025000;,
         0.037180; 0.000000;,
         0.000000; 0.025000;,
         0.000000; 0.475000;,
         0.037180; 0.475000;,
         0.037180; 0.025000;,
         0.775643; 0.975000;,
         0.775643; 1.000000;,
         0.807694; 1.000000;,
         0.807694; 0.975000;,
         0.871796; 0.975000;,
         0.871796; 0.525000;,
         0.839745; 0.525000;,
         0.839745; 0.975000;,
         0.871796; 1.000000;,
         0.871796; 0.975000;,
         0.839745; 0.975000;,
         0.839745; 1.000000;,
         0.775643; 0.525000;,
         0.775643; 0.500000;,
         0.743592; 0.500000;,
         0.743592; 0.525000;,
         0.775643; 0.500000;,
         0.775643; 0.525000;,
         0.807694; 0.525000;,
         0.807694; 0.500000;,
         0.775643; 0.525000;,
         0.775643; 0.975000;,
         0.807694; 0.975000;,
         0.807694; 0.525000;,
         0.807694; 0.500000;,
         0.807694; 0.525000;,
         0.839745; 0.525000;,
         0.839745; 0.500000;,
         0.903847; 1.000000;,
         0.903847; 0.550000;,
         0.871796; 0.550000;,
         0.871796; 1.000000;,
         1.000000; 1.000000;,
         1.000000; 0.550000;,
         0.967949; 0.550000;,
         0.967949; 1.000000;,
         0.807694; 0.525000;,
         0.807694; 0.975000;,
         0.839745; 0.975000;,
         0.839745; 0.525000;,
         0.871796; 0.525000;,
         0.871796; 0.500000;,
         0.839745; 0.500000;,
         0.839745; 0.525000;,
         0.775643; 1.000000;,
         0.775643; 0.975000;,
         0.743592; 0.975000;,
         0.743592; 1.000000;,
         0.967949; 1.000000;,
         0.967949; 0.550000;,
         0.935898; 0.550000;,
         0.935898; 1.000000;,
         0.807694; 0.975000;,
         0.807694; 1.000000;,
         0.839745; 1.000000;,
         0.839745; 0.975000;,
         0.775643; 0.525000;,
         0.743592; 0.525000;,
         0.743592; 0.975000;,
         0.775643; 0.975000;,
         0.903847; 0.550000;,
         0.903847; 1.000000;,
         0.935898; 1.000000;,
         0.935898; 0.550000;,
         0.000000; 0.525000;,
         0.000000; 0.975000;,
         0.037180; 0.975000;,
         0.037180; 0.525000;;
      } // End of Plane UV coordinates
      MeshMaterialList { // Plane material list
        1;
        32;
        0,
        0,
        0,
        0,
        0,
        0,
        0,
        0,
        0,
        0,
        0,
        0,
        0,
        0,
        0,
        0,
        0,
        0,
        0,
        0,
        0,
        0,
        0,
        0,
        0,
        0,
        0,
        0,
        0,
        0,
        0,
        0;;
        Material Material {
           0.640000; 0.640000; 0.640000; 1.000000;;
           96.078431;
           0.000000; 0.000000; 0.000000;;
           0.000000; 0.000000; 0.000000;;
          TextureFilename {"red.PNG";}
        }
      } // End of Plane material list
    } // End of Plane mesh
  } // End of Plane
} // End of Root
