xof 0303txt 0032

Frame Root {
  FrameTransformMatrix {
     1.000000, 0.000000, 0.000000, 0.000000,
     0.000000,-0.000000, 1.000000, 0.000000,
     0.000000, 1.000000, 0.000000, 0.000000,
     0.000000, 0.000000, 0.000000, 1.000000;;
  }
  Frame Plane {
    FrameTransformMatrix {
       1.000000, 0.000000, 0.000000, 0.000000,
       0.000000, 1.000000, 0.000000, 0.000000,
       0.000000, 0.000000, 1.000000, 0.000000,
       0.000000, 0.000000, 0.000000, 1.000000;;
    }
    Mesh { // Plane mesh
      24;
      -1.000000;-1.000000; 0.000000;,
      -1.000000; 1.000000; 0.000000;,
       1.000000; 1.000000; 0.000000;,
       1.000000;-1.000000; 0.000000;,
      -1.000000;-1.000000; 0.062284;,
       1.000000;-1.000000; 0.062284;,
       1.000000; 1.000000; 0.062284;,
      -1.000000; 1.000000; 0.062284;,
       1.000000;-1.000000; 0.000000;,
       1.000000; 1.000000; 0.000000;,
       1.000000; 1.000000; 0.062284;,
       1.000000;-1.000000; 0.062284;,
      -1.000000; 1.000000; 0.000000;,
      -1.000000;-1.000000; 0.000000;,
      -1.000000;-1.000000; 0.062284;,
      -1.000000; 1.000000; 0.062284;,
       1.000000; 1.000000; 0.000000;,
      -1.000000; 1.000000; 0.000000;,
      -1.000000; 1.000000; 0.062284;,
       1.000000; 1.000000; 0.062284;,
      -1.000000;-1.000000; 0.000000;,
       1.000000;-1.000000; 0.000000;,
       1.000000;-1.000000; 0.062284;,
      -1.000000;-1.000000; 0.062284;;
      6;
      4;3,2,1,0;,
      4;7,6,5,4;,
      4;11,10,9,8;,
      4;15,14,13,12;,
      4;19,18,17,16;,
      4;23,22,21,20;;
      MeshNormals { // Plane normals
        6;
        -0.000000; 0.000000;-1.000000;,
         0.000000; 0.000000; 1.000000;,
         1.000000; 0.000000; 0.000000;,
        -1.000000; 0.000000;-0.000000;,
         0.000000; 1.000000; 0.000000;,
         0.000000;-1.000000;-0.000000;;
        6;
        4;0,0,0,0;,
        4;1,1,1,1;,
        4;2,2,2,2;,
        4;3,3,3,3;,
        4;4,4,4,4;,
        4;5,5,5,5;;
      } // End of Plane normals
      MeshTextureCoords { // Plane UV coordinates
        24;
         0.889230; 0.500000;,
         0.000000; 0.500000;,
         0.000000; 1.000000;,
         0.889230; 1.000000;,
         0.000000; 0.000000;,
         0.000000; 0.500000;,
         0.889230; 0.500000;,
         0.889230; 0.000000;,
         0.916923; 1.000000;,
         0.916923; 0.500000;,
         0.889231; 0.500000;,
         0.889230; 1.000000;,
         1.000000; 1.000000;,
         1.000000; 0.500000;,
         0.972308; 0.500000;,
         0.972308; 1.000000;,
         0.944615; 1.000000;,
         0.944615; 0.500000;,
         0.916923; 0.500000;,
         0.916923; 1.000000;,
         0.944615; 0.500000;,
         0.944615; 1.000000;,
         0.972308; 1.000000;,
         0.972308; 0.500000;;
      } // End of Plane UV coordinates
      MeshMaterialList { // Plane material list
        1;
        6;
        0,
        0,
        0,
        0,
        0,
        0;;
        Material Material_001 {
           0.640000; 0.640000; 0.640000; 1.000000;;
           96.078431;
           0.000000; 0.000000; 0.000000;;
           0.000000; 0.000000; 0.000000;;
          TextureFilename {"pathStone.jpg";}
        }
      } // End of Plane material list
    } // End of Plane mesh
  } // End of Plane
} // End of Root
